{
	"page": 2,
	"total_results": 19832,
	"total_pages": 992,
	"results": [{
		"vote_count": 17,
		"id": 399360,
		"video": false,
		"vote_average": 5.6,
		"title": "Alpha",
		"popularity": 53.179,
		"poster_path": "\/afdZAIcAQscziqVtsEoh2PwsYTW.jpg",
		"original_language": "en",
		"original_title": "Alpha",
		"genre_ids": [53, 12, 18],
		"backdrop_path": "\/nKMeTdm72LQ756Eq20uTjF1zDXu.jpg",
		"adult": false,
		"overview": "After a hunting expedition goes awry, a young caveman struggles against the elements to find his way home.",
		"release_date": "2018-08-17"
	}, {
		"vote_count": 1948,
		"id": 260513,
		"video": false,
		"vote_average": 7.7,
		"title": "Incredibles 2",
		"popularity": 50.951,
		"poster_path": "\/x1txcDXkcM65gl7w20PwYSxAYah.jpg",
		"original_language": "en",
		"original_title": "Incredibles 2",
		"genre_ids": [28, 12, 16, 10751],
		"backdrop_path": "\/mabuNsGJgRuCTuGqjFkWe1xdu19.jpg",
		"adult": false,
		"overview": "Elastigirl springs into action to save the day, while Mr. Incredible faces his greatest challenge yet – taking care of the problems of his three children.",
		"release_date": "2018-06-14"
	}, {
		"vote_count": 16431,
		"id": 293660,
		"video": false,
		"vote_average": 7.5,
		"title": "Deadpool",
		"popularity": 49.723,
		"poster_path": "\/inVq3FRqcYIRl2la8iZikYYxFNR.jpg",
		"original_language": "en",
		"original_title": "Deadpool",
		"genre_ids": [28, 12, 35],
		"backdrop_path": "\/n1y094tVDFATSzkTnFxoGZ1qNsG.jpg",
		"adult": false,
		"overview": "Deadpool tells the origin story of former Special Forces operative turned mercenary Wade Wilson, who after being subjected to a rogue experiment that leaves him with accelerated healing powers, adopts the alter ego Deadpool. Armed with his new abilities and a dark, twisted sense of humor, Deadpool hunts down the man who nearly destroyed his life.",
		"release_date": "2016-02-09"
	}, {
		"vote_count": 638,
		"id": 466282,
		"video": false,
		"vote_average": 8.3,
		"title": "To All the Boys I've Loved Before",
		"popularity": 48.453,
		"poster_path": "\/hKHZhUbIyUAjcSrqJThFGYIR6kI.jpg",
		"original_language": "en",
		"original_title": "To All the Boys I've Loved Before",
		"genre_ids": [35, 10749],
		"backdrop_path": "\/hBHxBOGQBTMX3bDmqKoAgniZ9hE.jpg",
		"adult": false,
		"overview": "Lara Jean's love life goes from imaginary to out of control when her secret letters to every boy she's ever fallen for are mysteriously mailed out.",
		"release_date": "2018-08-17"
	}, {
		"vote_count": 15868,
		"id": 24428,
		"video": false,
		"vote_average": 7.6,
		"title": "The Avengers",
		"popularity": 47.715,
		"poster_path": "\/cezWGskPY5x7GaglTTRN4Fugfb8.jpg",
		"original_language": "en",
		"original_title": "The Avengers",
		"genre_ids": [878, 28, 12],
		"backdrop_path": "\/hbn46fQaRmlpBuUrEiFqv0GDL6Y.jpg",
		"adult": false,
		"overview": "When an unexpected enemy emerges and threatens global safety and security, Nick Fury, director of the international peacekeeping agency known as S.H.I.E.L.D., finds himself in need of a team to pull the world back from the brink of disaster. Spanning the globe, a daring recruitment effort begins!",
		"release_date": "2012-04-25"
	}, {
		"vote_count": 33,
		"id": 493006,
		"video": false,
		"vote_average": 4.5,
		"title": "Detective Conan: Zero the Enforcer",
		"popularity": 47.077,
		"poster_path": "\/skJl9GXEXtKoPNtsgslS2swO3zp.jpg",
		"original_language": "ja",
		"original_title": "名探偵コナン ゼロの執行人",
		"genre_ids": [16, 80, 9648, 28, 18],
		"backdrop_path": "\/kEqeponciiz6TyuKWtnKSzXzbGa.jpg",
		"adult": false,
		"overview": "There is a sudden explosion at Tokyo Summit's giant Edge of Ocean facility. The shadow of Tōru Amuro, who works for the National Police Agency Security Bureau as Zero, appears at the site. In addition, the \"triple-face\" character is known as Rei Furuya as a detective and Kogorō Mōri's apprentice, and he is also known as Bourbon as a Black Organization member. Kogorō is arrested as a suspect in the case of the explosion. Conan conducts an investigation to prove Kogorō's innocence, but Amuro gets in his way.",
		"release_date": "2018-04-13"
	}, {
		"vote_count": 9195,
		"id": 283995,
		"video": false,
		"vote_average": 7.7,
		"title": "Guardians of the Galaxy Vol. 2",
		"popularity": 46.756,
		"poster_path": "\/y4MBh0EjBlMuOzv9axM4qJlmhzz.jpg",
		"original_language": "en",
		"original_title": "Guardians of the Galaxy Vol. 2",
		"genre_ids": [28, 12, 35, 878],
		"backdrop_path": "\/aJn9XeesqsrSLKcHfHP4u5985hn.jpg",
		"adult": false,
		"overview": "The Guardians must fight to keep their newfound family together as they unravel the mysteries of Peter Quill's true parentage.",
		"release_date": "2017-04-19"
	}, {
		"vote_count": 10224,
		"id": 99861,
		"video": false,
		"vote_average": 7.3,
		"title": "Avengers: Age of Ultron",
		"popularity": 46.326,
		"poster_path": "\/t90Y3G8UGQp0f0DrP60wRu9gfrH.jpg",
		"original_language": "en",
		"original_title": "Avengers: Age of Ultron",
		"genre_ids": [28, 12, 878],
		"backdrop_path": "\/rFtsE7Lhlc2jRWF7SRAU0fvrveQ.jpg",
		"adult": false,
		"overview": "When Tony Stark tries to jumpstart a dormant peacekeeping program, things go awry and Earth’s Mightiest Heroes are put to the ultimate test as the fate of the planet hangs in the balance. As the villainous Ultron emerges, it is up to The Avengers to stop him from enacting his terrible plans, and soon uneasy alliances and unexpected action pave the way for an epic and unique global adventure.",
		"release_date": "2015-04-22"
	}, {
		"vote_count": 10634,
		"id": 671,
		"video": false,
		"vote_average": 7.7,
		"title": "Harry Potter and the Philosopher's Stone",
		"popularity": 45.927,
		"poster_path": "\/dCtFvscYcXQKTNvyyaQr2g2UacJ.jpg",
		"original_language": "en",
		"original_title": "Harry Potter and the Philosopher's Stone",
		"genre_ids": [12, 14, 10751],
		"backdrop_path": "\/dug34qm7BSnC1AVwtuQsGDFxxbG.jpg",
		"adult": false,
		"overview": "Harry Potter has lived under the stairs at his aunt and uncle's house his whole life. But on his 11th birthday, he learns he's a powerful wizard -- with a place waiting for him at the Hogwarts School of Witchcraft and Wizardry. As he learns to harness his newfound powers with the help of the school's kindly headmaster, Harry uncovers the truth about his parents' deaths -- and about the villain who's to blame.",
		"release_date": "2001-11-16"
	}, {
		"vote_count": 306,
		"id": 345887,
		"video": false,
		"vote_average": 6.3,
		"title": "The Equalizer 2",
		"popularity": 45.139,
		"poster_path": "\/cQvc9N6JiMVKqol3wcYrGshsIdZ.jpg",
		"original_language": "en",
		"original_title": "The Equalizer 2",
		"genre_ids": [53, 28, 80],
		"backdrop_path": "\/z6KLDE72SxE1A8JcJTmmnWArOvR.jpg",
		"adult": false,
		"overview": "Robert McCall returns to deliver his special brand of vigilante justice -- but how far will he go when it's someone he loves?",
		"release_date": "2018-07-19"
	}, {
		"vote_count": 3938,
		"id": 156022,
		"video": false,
		"vote_average": 7.1,
		"title": "The Equalizer",
		"popularity": 44.32,
		"poster_path": "\/2eQfjqlvPAxd9aLDs8DvsKLnfed.jpg",
		"original_language": "en",
		"original_title": "The Equalizer",
		"genre_ids": [53, 28, 80],
		"backdrop_path": "\/ms9oACSGJRjofNPA6HVtcgE5DiU.jpg",
		"adult": false,
		"overview": "In The Equalizer, Denzel Washington plays McCall, a man who believes he has put his mysterious past behind him and dedicated himself to beginning a new, quiet life. But when McCall meets Teri (Chloë Grace Moretz), a young girl under the control of ultra-violent Russian gangsters, he can’t stand idly by – he has to help her. Armed with hidden skills that allow him to serve vengeance against anyone who would brutalize the helpless, McCall comes out of his self-imposed retirement and finds his desire for justice reawakened. If someone has a problem, if the odds are stacked against them, if they have nowhere else to turn, McCall will help. He is The Equalizer.",
		"release_date": "2014-09-24"
	}, {
		"vote_count": 14,
		"id": 476292,
		"video": false,
		"vote_average": 4.9,
		"title": "Maquia: When the Promised Flower Blooms",
		"popularity": 43.405,
		"poster_path": "\/qcnOKCPleLOTWPPgYI0YT1MOQwR.jpg",
		"original_language": "ja",
		"original_title": "さよならの朝に約束の花をかざろう",
		"genre_ids": [16],
		"backdrop_path": "\/cfbjFQ14hSTgXChBEvaEjFiUaKb.jpg",
		"adult": false,
		"overview": "A story of encounters and partings interwoven between people; this is a human drama with feelings that touch one's heart gradually, which everyone has experienced at least once.",
		"release_date": "2018-02-24"
	}, {
		"vote_count": 3,
		"id": 507569,
		"video": false,
		"vote_average": 6.3,
		"title": "The Seven Deadly Sins: Prisoners of the Sky",
		"popularity": 42.757,
		"poster_path": "\/fK6zf4eN5xxkCO3MP9rDNWOq6Ys.jpg",
		"original_language": "ja",
		"original_title": "劇場版 七つの大罪 天空の囚われ人",
		"genre_ids": [28, 12, 14, 16],
		"backdrop_path": "\/uKwOX7MtKlAaGeCQe6c4jc1vZpj.jpg",
		"adult": false,
		"overview": "The Seven Deadly Sins travel to a remote land in search of the phantom ingredient \"sky fish.\" Meliodas and Hawk end up at a \"Sky Palace\" that exists above the clouds, where all the residents have wings. Meliodas is mistaken for a boy who committed a crime and is thrown in prison. Meanwhile, the residents are preparing a ceremony for defense against a ferocious beast that awakens once every 3,000 years. But the Six Knights of Black, a Demon Clan army, arrives and removes the seal on the beast in order to threaten the lives of the residents of Sky Palace. Meliodas and his allies meet the Six Knights of Black in battle.",
		"release_date": "2018-08-18"
	}, {
		"vote_count": 3090,
		"id": 316029,
		"video": false,
		"vote_average": 8,
		"title": "The Greatest Showman",
		"popularity": 41.177,
		"poster_path": "\/b9CeobiihCx1uG1tpw8hXmpi7nm.jpg",
		"original_language": "en",
		"original_title": "The Greatest Showman",
		"genre_ids": [18],
		"backdrop_path": "\/zpq404Sk7qQ7N4x3xOeNgp74GtU.jpg",
		"adult": false,
		"overview": "The story of American showman P.T. Barnum, founder of the circus that became the famous traveling Ringling Bros. and Barnum & Bailey Circus.",
		"release_date": "2017-12-20"
	}, {
		"vote_count": 5026,
		"id": 335984,
		"video": false,
		"vote_average": 7.3,
		"title": "Blade Runner 2049",
		"popularity": 40.823,
		"poster_path": "\/gajva2L0rPYkEWjzgFlBXCAVBE5.jpg",
		"original_language": "en",
		"original_title": "Blade Runner 2049",
		"genre_ids": [9648, 878, 53],
		"backdrop_path": "\/mVr0UiqyltcfqxbAUcLl9zWL8ah.jpg",
		"adult": false,
		"overview": "Thirty years after the events of the first film, a new blade runner, LAPD Officer K, unearths a long-buried secret that has the potential to plunge what's left of society into chaos. K's discovery leads him on a quest to find Rick Deckard, a former LAPD blade runner who has been missing for 30 years.",
		"release_date": "2017-10-04"
	}, {
		"vote_count": 8681,
		"id": 198663,
		"video": false,
		"vote_average": 7,
		"title": "The Maze Runner",
		"popularity": 40.234,
		"poster_path": "\/coss7RgL0NH6g4fC2s5atvf3dFO.jpg",
		"original_language": "en",
		"original_title": "The Maze Runner",
		"genre_ids": [28, 9648, 878, 53],
		"backdrop_path": "\/lkOZcsXcOLZYeJ2YxJd3vSldvU4.jpg",
		"adult": false,
		"overview": "Set in a post-apocalyptic world, young Thomas is deposited in a community of boys after his memory is erased, soon learning they're all trapped in a maze that will require him to join forces with fellow “runners” for a shot at escape.",
		"release_date": "2014-09-10"
	}, {
		"vote_count": 4,
		"id": 343111,
		"video": false,
		"vote_average": 2.8,
		"title": "Aage Ki Soch",
		"popularity": 40.065,
		"poster_path": "\/qSJ0j8PQrhEzmd7jlwpxS4liQI7.jpg",
		"original_language": "hi",
		"original_title": "आगे की सोच",
		"genre_ids": [35],
		"backdrop_path": "\/rmQszCUBlCeqdtFWTWhGqGTlBW1.jpg",
		"adult": false,
		"overview": "Aage Ki Soch is 1988 Hindi language movie directed by Dada Kondke and starring Shakti Kapoor, Dada Kondke, Swapna, Raza Murad, and Satish Shah",
		"release_date": "1988-01-01"
	}, {
		"vote_count": 7962,
		"id": 245891,
		"video": false,
		"vote_average": 7,
		"title": "John Wick",
		"popularity": 40.02,
		"poster_path": "\/5vHssUeVe25bMrof1HyaPyWgaP.jpg",
		"original_language": "en",
		"original_title": "John Wick",
		"genre_ids": [28, 53],
		"backdrop_path": "\/umC04Cozevu8nn3JTDJ1pc7PVTn.jpg",
		"adult": false,
		"overview": "Ex-hitman John Wick comes out of retirement to track down the gangsters that took everything from him.",
		"release_date": "2014-10-22"
	}, {
		"vote_count": 2490,
		"id": 337167,
		"video": false,
		"vote_average": 6,
		"title": "Fifty Shades Freed",
		"popularity": 39.698,
		"poster_path": "\/jjPJ4s3DWZZvI4vw8Xfi4Vqa1Q8.jpg",
		"original_language": "en",
		"original_title": "Fifty Shades Freed",
		"genre_ids": [18, 10749],
		"backdrop_path": "\/9ywA15OAiwjSTvg3cBs9B7kOCBF.jpg",
		"adult": false,
		"overview": "Believing they have left behind shadowy figures from their past, newlyweds Christian and Ana fully embrace an inextricable connection and shared life of luxury. But just as she steps into her role as Mrs. Grey and he relaxes into an unfamiliar stability, new threats could jeopardize their happy ending before it even begins.",
		"release_date": "2018-01-17"
	}, {
		"vote_count": 6795,
		"id": 122917,
		"video": false,
		"vote_average": 7.2,
		"title": "The Hobbit: The Battle of the Five Armies",
		"popularity": 39.528,
		"poster_path": "\/9zRzFJuaj0CHIOhAkcCcFTvyu2X.jpg",
		"original_language": "en",
		"original_title": "The Hobbit: The Battle of the Five Armies",
		"genre_ids": [28, 12, 14],
		"backdrop_path": "\/uA8Qe2d9bKEdCFakjjdldy3P2pU.jpg",
		"adult": false,
		"overview": "Immediately after the events of The Desolation of Smaug, Bilbo and the dwarves try to defend Erebor's mountain of treasure from others who claim it: the men of the ruined Laketown and the elves of Mirkwood. Meanwhile an army of Orcs led by Azog the Defiler is marching on Erebor, fueled by the rise of the dark lord Sauron. Dwarves, elves and men must unite, and the hope for Middle-Earth falls into Bilbo's hands.",
		"release_date": "2014-12-10"
	}]
}