{
	"page": 1,
	"total_results": 19832,
	"total_pages": 992,
	"results": [{
		"vote_count": 7080,
		"id": 299536,
		"video": false,
		"vote_average": 8.3,
		"title": "Avengers: Infinity War",
		"popularity": 275.362,
		"poster_path": "\/7WsyChQLEftFiDOVTGkv3hFpyyt.jpg",
		"original_language": "en",
		"original_title": "Avengers: Infinity War",
		"genre_ids": [12, 878, 14, 28],
		"backdrop_path": "\/bOGkgRGdhrBYJSLpXaxhXVstddV.jpg",
		"adult": false,
		"overview": "As the Avengers and their allies have continued to protect the world from threats too large for any one hero to handle, a new danger has emerged from the cosmic shadows: Thanos. A despot of intergalactic infamy, his goal is to collect all six Infinity Stones, artifacts of unimaginable power, and use them to inflict his twisted will on all of reality. Everything the Avengers have fought for has led up to this moment - the fate of Earth and existence itself has never been more uncertain.",
		"release_date": "2018-04-25"
	}, {
		"vote_count": 4056,
		"id": 383498,
		"video": false,
		"vote_average": 7.5,
		"title": "Deadpool 2",
		"popularity": 201.397,
		"poster_path": "\/to0spRl1CMDvyUbOnbb4fTk3VAd.jpg",
		"original_language": "en",
		"original_title": "Deadpool 2",
		"genre_ids": [28, 35, 878],
		"backdrop_path": "\/3P52oz9HPQWxcwHOwxtyrVV1LKi.jpg",
		"adult": false,
		"overview": "Wisecracking mercenary Deadpool battles the evil and powerful Cable and other bad guys to save a boy's life.",
		"release_date": "2018-05-15"
	}, {
		"vote_count": 413,
		"id": 345940,
		"video": false,
		"vote_average": 6.2,
		"title": "The Meg",
		"popularity": 156.348,
		"poster_path": "\/xqECHNvzbDL5I3iiOVUkVPJMSbc.jpg",
		"original_language": "en",
		"original_title": "The Meg",
		"genre_ids": [28, 878, 53, 27],
		"backdrop_path": "\/ibKeXahq4JD63z6uWQphqoJLvNw.jpg",
		"adult": false,
		"overview": "A deep sea submersible pilot revisits his past fears in the Mariana Trench, and accidentally unleashes the seventy foot ancestor of the Great White Shark believed to be extinct.",
		"release_date": "2018-08-09"
	}, {
		"vote_count": 1015,
		"id": 353081,
		"video": false,
		"vote_average": 7.5,
		"title": "Mission: Impossible - Fallout",
		"popularity": 130.794,
		"poster_path": "\/AkJQpZp9WoNdj7pLYSj1L0RcMMN.jpg",
		"original_language": "en",
		"original_title": "Mission: Impossible - Fallout",
		"genre_ids": [12, 28, 53],
		"backdrop_path": "\/5qxePyMYDisLe8rJiBYX8HKEyv2.jpg",
		"adult": false,
		"overview": "When an IMF mission ends badly, the world is faced with dire consequences. As Ethan Hunt takes it upon himself to fulfil his original briefing, the CIA begin to question his loyalty and his motives. The IMF team find themselves in a race against time, hunted by assassins while trying to prevent a global catastrophe.",
		"release_date": "2018-07-25"
	}, {
		"vote_count": 1584,
		"id": 363088,
		"video": false,
		"vote_average": 7,
		"title": "Ant-Man and the Wasp",
		"popularity": 86.041,
		"poster_path": "\/rv1AWImgx386ULjcf62VYaW8zSt.jpg",
		"original_language": "en",
		"original_title": "Ant-Man and the Wasp",
		"genre_ids": [28, 12, 14, 35, 878],
		"backdrop_path": "\/6P3c80EOm7BodndGBUAJHHsHKrp.jpg",
		"adult": false,
		"overview": "As Scott Lang awaits expiration of his term of house detention, Hope van Dyne and Dr. Hank Pym involve him in a scheme to rescue Mrs. van Dyne from the micro-universe into which she has fallen, while two groups of schemers converge on them with intentions of stealing Dr. Pym's inventions.",
		"release_date": "2018-07-04"
	}, {
		"vote_count": 7547,
		"id": 284054,
		"video": false,
		"vote_average": 7.3,
		"title": "Black Panther",
		"popularity": 85.48,
		"poster_path": "\/uxzzxijgPIY7slzFvMotPv8wjKA.jpg",
		"original_language": "en",
		"original_title": "Black Panther",
		"genre_ids": [28, 12, 14, 878],
		"backdrop_path": "\/b6ZJZHUdMEFECvGiDpJjlfUWela.jpg",
		"adult": false,
		"overview": "King T'Challa returns home from America to the reclusive, technologically advanced African nation of Wakanda to serve as his country's new leader. However, T'Challa soon finds that he is challenged for the throne by factions within his own country as well as without. Using powers reserved to Wakandan kings, T'Challa assumes the Black Panther mantel to join with girlfriend Nakia, the queen-mother, his princess-kid sister, members of the Dora Milaje (the Wakandan 'special forces') and an American secret agent, to prevent Wakanda from being dragged into a world war.",
		"release_date": "2018-02-13"
	}, {
		"vote_count": 2764,
		"id": 351286,
		"video": false,
		"vote_average": 6.6,
		"title": "Jurassic World: Fallen Kingdom",
		"popularity": 82.145,
		"poster_path": "\/c9XxwwhPHdaImA2f1WEfEsbhaFB.jpg",
		"original_language": "en",
		"original_title": "Jurassic World: Fallen Kingdom",
		"genre_ids": [28, 12, 878],
		"backdrop_path": "\/3s9O5af2xWKWR5JzP2iJZpZeQQg.jpg",
		"adult": false,
		"overview": "Several years after the demise of Jurassic World, a volcanic eruption threatens the remaining dinosaurs on the island of Isla Nublar. Claire Dearing, the former park manager and founder of the Dinosaur Protection Group, recruits Owen Grady to help prevent the extinction of the dinosaurs once again.",
		"release_date": "2018-06-06"
	}, {
		"vote_count": 1,
		"id": 523873,
		"video": false,
		"vote_average": 0,
		"title": "Kung Fu League",
		"popularity": 68.767,
		"poster_path": "\/rW0A73hjzPWVwADlCTLnjLhAFLX.jpg",
		"original_language": "zh",
		"original_title": "功夫联盟",
		"genre_ids": [28, 35],
		"backdrop_path": null,
		"adult": false,
		"overview": "Martial arts comedy following a group of kung fu legends banding together to take on the bad guys. The legends includes VINCENT ZHAO reprising his role as ‘Wong Fei Hung’ with DENNIS TO once again portraying ‘Wing Chun’ master ‘Ip Man’, DANNY CHAN KWOK KWAN as ‘Chen Zhen’ and ANDY ON as master ‘Huo Yuan Jia’.",
		"release_date": "2018-10-19"
	}, {
		"vote_count": 7887,
		"id": 284053,
		"video": false,
		"vote_average": 7.5,
		"title": "Thor: Ragnarok",
		"popularity": 68.259,
		"poster_path": "\/rzRwTcFvttcN1ZpX2xv4j3tSdJu.jpg",
		"original_language": "en",
		"original_title": "Thor: Ragnarok",
		"genre_ids": [28, 12],
		"backdrop_path": "\/kaIfm5ryEOwYg8mLbq8HkPuM1Fo.jpg",
		"adult": false,
		"overview": "Thor is on the other side of the universe and finds himself in a race against time to get back to Asgard to stop Ragnarok, the prophecy of destruction to his homeworld and the end of Asgardian civilization, at the hands of an all-powerful new threat, the ruthless Hela.",
		"release_date": "2017-10-25"
	}, {
		"vote_count": 0,
		"id": 505954,
		"video": false,
		"vote_average": 0,
		"title": "T-34",
		"popularity": 65.276,
		"poster_path": "\/wNJF8R5QE6nBT7DQoKk8t6YD1MM.jpg",
		"original_language": "ru",
		"original_title": "Т-34",
		"genre_ids": [10752, 18, 12],
		"backdrop_path": "\/vDx8XxfYjkn573bCFGF6SkdM33Q.jpg",
		"adult": false,
		"overview": "1941. WWii. the second lieutenant Nikolai ivushkin, commander of a t-34, engages in an unequal battle against the tank ace Klaus Jager in a battle near moscow. His mission is more of a suicide - to destroy a dozen german tanks, all by himself. that said, luck does favour the bold. He wins the battle, barely survives, but loses his tank and lands himself in captivity for three long years... there was little to no chance for ivushkin and Jager to meet again, but the war knows how to throw a curve ball.in the spring of 1944, the Wehrmacht commands Jager to take charge of the ohrdruf  re range and turn it into a training center for elite german armored forces, using the latest t-34 as a running target. this is how Jager and ivushkin cross paths again. Jager o ers ivushkin to become the commander of a legendary tank and pick his crew from fellow camp prisoners. Nothing goes according to plan, though, when ivushkin uses exercises for a daring and carefully planned escape.",
		"release_date": "2018-12-27"
	}, {
		"vote_count": 179,
		"id": 500664,
		"video": false,
		"vote_average": 7.6,
		"title": "Upgrade",
		"popularity": 65.012,
		"poster_path": "\/adOzdWS35KAo21r9R4BuFCkLer6.jpg",
		"original_language": "en",
		"original_title": "Upgrade",
		"genre_ids": [28, 53, 878],
		"backdrop_path": "\/22cUd4Yg5euCxIwWzXrL4m4otkU.jpg",
		"adult": false,
		"overview": "A brutal mugging leaves Grey Trace paralyzed in the hospital and his beloved wife dead. A billionaire inventor soon offers Trace a cure — an artificial intelligence implant called STEM that will enhance his body. Now able to walk, Grey finds that he also has superhuman strength and agility — skills he uses to seek revenge against the thugs who destroyed his life.",
		"release_date": "2018-06-01"
	}, {
		"vote_count": 465,
		"id": 447200,
		"video": false,
		"vote_average": 6,
		"title": "Skyscraper",
		"popularity": 64.37,
		"poster_path": "\/5LYSsOPzuP13201qSzMjNxi8FxN.jpg",
		"original_language": "en",
		"original_title": "Skyscraper",
		"genre_ids": [28, 53, 18],
		"backdrop_path": "\/oMKFQmoVgB69fyXfSMu0lGlHJP2.jpg",
		"adult": false,
		"overview": "Framed and on the run, a former FBI agent must save his family from a blazing fire in the world's tallest building.",
		"release_date": "2018-07-11"
	}, {
		"vote_count": 14306,
		"id": 118340,
		"video": false,
		"vote_average": 7.9,
		"title": "Guardians of the Galaxy",
		"popularity": 63.939,
		"poster_path": "\/y31QB9kn3XSudA15tV7UWQ9XLuW.jpg",
		"original_language": "en",
		"original_title": "Guardians of the Galaxy",
		"genre_ids": [28, 878, 12],
		"backdrop_path": "\/bHarw8xrmQeqf3t8HpuMY7zoK4x.jpg",
		"adult": false,
		"overview": "Light years from Earth, 26 years after being abducted, Peter Quill finds himself the prime target of a manhunt after discovering an orb wanted by Ronan the Accuser.",
		"release_date": "2014-07-30"
	}, {
		"vote_count": 3,
		"id": 487258,
		"video": false,
		"vote_average": 3.3,
		"title": "Marainthirunthu Paarkum Marmam Enna",
		"popularity": 60.627,
		"poster_path": "\/2zfyj4gY7RHkf89ssSTly2UppMC.jpg",
		"original_language": "ta",
		"original_title": "மறைந்திருந்து பார்க்கும் மர்மம் என்ன",
		"genre_ids": [10751, 80, 10749],
		"backdrop_path": "\/lp2fC1MPUc8bCmDxJ8uXLvecyby.jpg",
		"adult": false,
		"overview": "A daring young man joins a gang that is behind chain-snatching crimes in the city. What's his game plan?",
		"release_date": "2018-08-17"
	}, {
		"vote_count": 3718,
		"id": 333339,
		"video": false,
		"vote_average": 7.7,
		"title": "Ready Player One",
		"popularity": 58.689,
		"poster_path": "\/pU1ULUq8D3iRxl1fdX2lZIzdHuI.jpg",
		"original_language": "en",
		"original_title": "Ready Player One",
		"genre_ids": [12, 878, 14],
		"backdrop_path": "\/5a7lMDn3nAj2ByO0X1fg6BhUphR.jpg",
		"adult": false,
		"overview": "When the creator of a popular video game system dies, a virtual contest is created to compete for his fortune.",
		"release_date": "2018-03-28"
	}, {
		"vote_count": 321,
		"id": 455980,
		"video": false,
		"vote_average": 6.9,
		"title": "Tag",
		"popularity": 57.215,
		"poster_path": "\/eXXpuW2xaq5Aen9N5prFlARVIvr.jpg",
		"original_language": "en",
		"original_title": "Tag",
		"genre_ids": [35, 18],
		"backdrop_path": "\/yRXzrwLfB5tDTIA3lSU9S3N9RUK.jpg",
		"adult": false,
		"overview": "For one month every year, five highly competitive friends hit the ground running in a no-holds-barred game of tag they’ve been playing since the first grade. This year, the game coincides with the wedding of their only undefeated player, which should finally make him an easy target. But he knows they’re coming...and he’s ready.",
		"release_date": "2018-05-30"
	}, {
		"vote_count": 1488,
		"id": 454983,
		"video": false,
		"vote_average": 7.6,
		"title": "The Kissing Booth",
		"popularity": 55.56,
		"poster_path": "\/7Dktk2ST6aL8h9Oe5rpk903VLhx.jpg",
		"original_language": "en",
		"original_title": "The Kissing Booth",
		"genre_ids": [10749, 35],
		"backdrop_path": "\/xEKx7zPEjN6meomZ7OhV82Mm2jm.jpg",
		"adult": false,
		"overview": "When teenager Elle's first kiss leads to a forbidden romance with the hottest boy in high school, she risks her relationship with her best friend.",
		"release_date": "2018-05-11"
	}, {
		"vote_count": 1730,
		"id": 427641,
		"video": false,
		"vote_average": 6.1,
		"title": "Rampage",
		"popularity": 54.548,
		"poster_path": "\/3gIO6mCd4Q4PF1tuwcyI3sjFrtI.jpg",
		"original_language": "en",
		"original_title": "Rampage",
		"genre_ids": [28, 12, 878, 14],
		"backdrop_path": "\/wrqUiMXttHE4UBFMhLHlN601MZh.jpg",
		"adult": false,
		"overview": "Primatologist Davis Okoye shares an unshakable bond with George, the extraordinarily intelligent, silverback gorilla who has been in his care since birth.  But a rogue genetic experiment gone awry mutates this gentle ape into a raging creature of enormous size.  To make matters worse, it’s soon discovered there are other similarly altered animals.  As these newly created alpha predators tear across North America, destroying everything in their path, Okoye teams with a discredited genetic engineer to secure an antidote, fighting his way through an ever-changing battlefield, not only to halt a global catastrophe but to save the fearsome creature that was once his friend.",
		"release_date": "2018-04-12"
	}, {
		"vote_count": 6354,
		"id": 181808,
		"video": false,
		"vote_average": 7.1,
		"title": "Star Wars: The Last Jedi",
		"popularity": 54.137,
		"poster_path": "\/kOVEVeg59E0wsnXmF9nrh6OmWII.jpg",
		"original_language": "en",
		"original_title": "Star Wars: The Last Jedi",
		"genre_ids": [14, 12, 878, 28],
		"backdrop_path": "\/5Iw7zQTHVRBOYpA0V6z0yypOPZh.jpg",
		"adult": false,
		"overview": "Rey develops her newly discovered abilities with the guidance of Luke Skywalker, who is unsettled by the strength of her powers. Meanwhile, the Resistance prepares to do battle with the First Order.",
		"release_date": "2017-12-13"
	}, {
		"vote_count": 8924,
		"id": 102899,
		"video": false,
		"vote_average": 7.1,
		"title": "Ant-Man",
		"popularity": 53.318,
		"poster_path": "\/D6e8RJf2qUstnfkTslTXNTUAlT.jpg",
		"original_language": "en",
		"original_title": "Ant-Man",
		"genre_ids": [878, 28, 12],
		"backdrop_path": "\/kvXLZqY0Ngl1XSw7EaMQO0C1CCj.jpg",
		"adult": false,
		"overview": "Armed with the astonishing ability to shrink in scale but increase in strength, master thief Scott Lang must embrace his inner-hero and help his mentor, Doctor Hank Pym, protect the secret behind his spectacular Ant-Man suit from a new generation of towering threats. Against seemingly insurmountable obstacles, Pym and Lang must plan and pull off a heist that will save the world.",
		"release_date": "2015-07-14"
	}]
}